{
"type": "FeatureCollection",
"name": "camaras_antiguas",
"features": [
{ "type": "Feature", "properties": { "x": -77.0232555, "y": -12.0536812, "gid": 1, "name": "Cam. 01- Jr. Huanta \/ Jr. Cuzco", "description": "-12.05368, -77.02325<br>Zona 1" }, "geometry": { "type": "Point", "coordinates": [ -77.0232555, -12.0536812 ] } },
{ "type": "Feature", "properties": { "x": -77.0257261, "y": -12.0509673, "gid": 2, "name": "Cam. 2 - Jr. Andahuaylas \/ Jr. Ucayali", "description": "-12.05096, -77.02572<br>Zona 1" }, "geometry": { "type": "Point", "coordinates": [ -77.0257261, -12.0509673 ] } },
{ "type": "Feature", "properties": { "x": -77.0266333, "y": -12.0477085, "gid": 3, "name": "Cam. 3 - Av. Abancay \/ Jr. Junín", "description": "-12.0477, -77.02663<br>Zona 1" }, "geometry": { "type": "Point", "coordinates": [ -77.0266333, -12.0477085 ] } },
{ "type": "Feature", "properties": { "x": -77.027902, "y": -12.0522234, "gid": 4, "name": "Cam. 4 - Jr. Ayacucho \/ Jr. Cusco", "description": "-12.05222, -77.0279<br>Zona 1" }, "geometry": { "type": "Point", "coordinates": [ -77.027902, -12.0522234 ] } },
{ "type": "Feature", "properties": { "x": -77.0282327, "y": -12.0508643, "gid": 5, "name": "Cam. 5 - Av. Abancay \/ Jr. Miro Quesada", "description": "-12.05086, -77.02823<br>Zona 1" }, "geometry": { "type": "Point", "coordinates": [ -77.0282327, -12.0508643 ] } },
{ "type": "Feature", "properties": { "x": -77.023728, "y": -12.0495371, "gid": 6, "name": "Cam. 6 - Jr. Paruro \/ Jr. Junín", "description": "-12.04953, -77.02372<br>Zona 1" }, "geometry": { "type": "Point", "coordinates": [ -77.023728, -12.0495371 ] } },
{ "type": "Feature", "properties": { "x": -77.0263298, "y": -12.0493115, "gid": 7, "name": "Cam. 7 - Jr. Ayacucho \/ Jr. Huallaga", "description": "-12.04931, -77.02632<br>Zona 1" }, "geometry": { "type": "Point", "coordinates": [ -77.0263298, -12.0493115 ] } },
{ "type": "Feature", "properties": { "x": -77.0217153, "y": -12.0476425, "gid": 8, "name": "Cam. 8 - Jr. Ancash \/ Jr. Huanta", "description": "-12.04764, -77.02171<br>Zona 1" }, "geometry": { "type": "Point", "coordinates": [ -77.0217153, -12.0476425 ] } },
{ "type": "Feature", "properties": { "x": -77.022711, "y": -12.0514526, "gid": 9, "name": "Cam. 09 - Jr. Huallaga \/ Jr. Huanta", "description": "-12.05145, -77.02271<br>Zona 1" }, "geometry": { "type": "Point", "coordinates": [ -77.022711, -12.0514526 ] } },
{ "type": "Feature", "properties": { "x": -77.0251575, "y": -12.0524705, "gid": 10, "name": "Cam. 10 - Jr. Paruro \/ Jr. Miro Quesada", "description": "-12.05247, -77.02515<br>Zona 1" }, "geometry": { "type": "Point", "coordinates": [ -77.0251575, -12.0524705 ] } },
{ "type": "Feature", "properties": { "x": -77.0267986, "y": -12.0546713, "gid": 11, "name": "Cam. 11 - Jr. Andahuaylas \/ Jr. Puno", "description": "-12.05467, -77.02679<br>Zona 1" }, "geometry": { "type": "Point", "coordinates": [ -77.0267986, -12.0546713 ] } },
{ "type": "Feature", "properties": { "x": -77.0256374, "y": -12.0560758, "gid": 12, "name": "Cam. 12 - Jr. Paruro \/ Jr. Leticia", "description": "-12.05607, -77.02563<br>Zona 1" }, "geometry": { "type": "Point", "coordinates": [ -77.0256374, -12.0560758 ] } },
{ "type": "Feature", "properties": { "x": -77.0285711, "y": -12.0576226, "gid": 13, "name": "Cam. 13 - Jr. Ayacucho \/ Jr. Montevideo", "description": "-12.05762, -77.02857<br>Zona 1" }, "geometry": { "type": "Point", "coordinates": [ -77.0285711, -12.0576226 ] } },
{ "type": "Feature", "properties": { "x": -77.0243305, "y": -12.0583625, "gid": 14, "name": "Cam. 14 - Av. Nicolás de Piérola \/ Jr. Huanta", "description": "-12.05836, -77.02433<br>Zona 1" }, "geometry": { "type": "Point", "coordinates": [ -77.0243305, -12.0583625 ] } },
{ "type": "Feature", "properties": { "x": -77.0290427, "y": -12.0489241, "gid": 15, "name": "Cam. 15 - Jr. Ucayali \/ Jr. Azángaro", "description": "-12.04892, -77.02904<br>Zona 2" }, "geometry": { "type": "Point", "coordinates": [ -77.0290427, -12.0489241 ] } },
{ "type": "Feature", "properties": { "x": -77.0386827, "y": -12.0509916, "gid": 16, "name": "Cam. 16 - Av. Garcilaso de la Vega \/ Jr. Quilca", "description": "-12.05099, -77.03868<br>Zona 2" }, "geometry": { "type": "Point", "coordinates": [ -77.0386827, -12.0509916 ] } },
{ "type": "Feature", "properties": { "x": -77.0354928, "y": -12.0435253, "gid": 17, "name": "Cam. 17 - Av. Tacna \/ Jr. Callao", "description": "-12.04352, -77.03549<br>Zona 2" }, "geometry": { "type": "Point", "coordinates": [ -77.0354928, -12.0435253 ] } },
{ "type": "Feature", "properties": { "x": -77.0336566, "y": -12.0433644, "gid": 18, "name": "Cam. 18 - Jr. Rufino Torrico \/ Jr. Conde Superunda", "description": "-12.04336, -77.03365<br>Zona 2" }, "geometry": { "type": "Point", "coordinates": [ -77.0336566, -12.0433644 ] } },
{ "type": "Feature", "properties": { "x": -77.0368544, "y": -12.0454927, "gid": 19, "name": "Cam. 19 - Av. Tacna \/ Jr. Huancavelica", "description": "-12.04549, -77.03685<br>Zona 2" }, "geometry": { "type": "Point", "coordinates": [ -77.0368544, -12.0454927 ] } },
{ "type": "Feature", "properties": { "x": -77.0306535, "y": -12.0451923, "gid": 20, "name": "Cam. 20 - Jr. De la unión \/ Jr. Conde Superunda", "description": "-12.04519, -77.03065<br>Zona 2" }, "geometry": { "type": "Point", "coordinates": [ -77.0306535, -12.0451923 ] } },
{ "type": "Feature", "properties": { "x": -77.0329797, "y": -12.0464638, "gid": 21, "name": "Cam. 21 - Jr. Ica \/ Jr. Camana", "description": "-12.04646, -77.03297<br> Zona 2" }, "geometry": { "type": "Point", "coordinates": [ -77.0329797, -12.0464638 ] } },
{ "type": "Feature", "properties": { "x": -77.0353822, "y": -12.0476305, "gid": 22, "name": "Cam. 22 - Av. Emancipación \/ Jr. Cailloma", "description": "-12.04763, -77.03538<br>Zona 2" }, "geometry": { "type": "Point", "coordinates": [ -77.0353822, -12.0476305 ] } },
{ "type": "Feature", "properties": { "x": -77.0389043, "y": -12.0488842, "gid": 23, "name": "Cam. 23 - Av. Garcilaso de la Vega \/ Av. Nicolás de Piérola", "description": "-12.04888, -77.0389<br>Zona 2" }, "geometry": { "type": "Point", "coordinates": [ -77.0389043, -12.0488842 ] } },
{ "type": "Feature", "properties": { "x": -77.0350389, "y": -12.049257, "gid": 24, "name": "Cam. 24 - Jr. Camana \/ Jr. Moquegua", "description": "-12.04925, -77.03503<br>Zona 2" }, "geometry": { "type": "Point", "coordinates": [ -77.0350389, -12.049257 ] } },
{ "type": "Feature", "properties": { "x": -77.0332974, "y": -12.0488947, "gid": 25, "name": "Cam. 25 - Jr. Cusco \/ Jr. De la Unión", "description": "-12.04889, -77.03329<br>Zona 2" }, "geometry": { "type": "Point", "coordinates": [ -77.0332974, -12.0488947 ] } },
{ "type": "Feature", "properties": { "x": -77.0306772, "y": -12.0492624, "gid": 26, "name": "Cam. 26 - Jr. Miro Quesada \/ Jr. Lampa", "description": "-12.04926, -77.03067<br>Zona 2" }, "geometry": { "type": "Point", "coordinates": [ -77.0306772, -12.0492624 ] } },
{ "type": "Feature", "properties": { "x": -77.029379, "y": -12.0473711, "gid": 27, "name": "Cam. 27 - Jr. Lampa \/ Jr. Huallaga", "description": "-12.04737, -77.02937<br>Zona 2" }, "geometry": { "type": "Point", "coordinates": [ -77.029379, -12.0473711 ] } },
{ "type": "Feature", "properties": { "x": -77.0279388, "y": -12.045374, "gid": 28, "name": "Cam. 28 - Jr. Lampa \/ Jr. Ancash", "description": "-12.04537, -77.02793<br>Zona 2" }, "geometry": { "type": "Point", "coordinates": [ -77.0279388, -12.045374 ] } },
{ "type": "Feature", "properties": { "x": -77.0310688, "y": -12.0517823, "gid": 29, "name": "Cam. 29 - Jr. Puno \/ Jr. Azángaro", "description": "-12.05178, -77.03106<br>Zona 2" }, "geometry": { "type": "Point", "coordinates": [ -77.0310688, -12.0517823 ] } },
{ "type": "Feature", "properties": { "x": -77.0301729, "y": -12.0544841, "gid": 30, "name": "Cam. 30 - Av. Nicolás de Piérola \/ Av. Abancay", "description": "-12.05448, -77.03017<br>Zona 2" }, "geometry": { "type": "Point", "coordinates": [ -77.0301729, -12.0544841 ] } },
{ "type": "Feature", "properties": { "x": -77.034659, "y": -12.0508965, "gid": 31, "name": "Cam. 31 - Jr. Ocoña \/ Jr. De la Unión", "description": "-12.05089, -77.03465<br>Zona 2" }, "geometry": { "type": "Point", "coordinates": [ -77.034659, -12.0508965 ] } },
{ "type": "Feature", "properties": { "x": -77.0352935, "y": -12.0541594, "gid": 32, "name": "Cam. 32 - Jr. Pachitea \/ Jr. Carabaya", "description": "-12.05415, -77.03529<br>Zona 2" }, "geometry": { "type": "Point", "coordinates": [ -77.0352935, -12.0541594 ] } },
{ "type": "Feature", "properties": { "x": -77.038356, "y": -12.0541698, "gid": 33, "name": "Cam. 33 - Av. Garcilaso de la Vega \/ Av. Uruguay", "description": "-12.05416, -77.03835<br>Zona 2" }, "geometry": { "type": "Point", "coordinates": [ -77.038356, -12.0541698 ] } },
{ "type": "Feature", "properties": { "x": -77.0365778, "y": -12.0557514, "gid": 34, "name": "Cam. 34 - Av. Bolivia \/ Jr. De la Unión", "description": "-12.05575, -77.03657<br>Zona 2" }, "geometry": { "type": "Point", "coordinates": [ -77.0365778, -12.0557514 ] } },
{ "type": "Feature", "properties": { "x": -77.0353735, "y": -12.0601502, "gid": 35, "name": "Cam. 35 - Av. Miguel Grau \/ Av. Paseo de la República", "description": "-12.06015, -77.03537<br>Zona 2" }, "geometry": { "type": "Point", "coordinates": [ -77.0353735, -12.0601502 ] } },
{ "type": "Feature", "properties": { "x": -77.0298451, "y": -12.0588646, "gid": 36, "name": "Cam. 36 - Av. Miguel Grau \/ Av. Abancay", "description": "-12.05886, -77.02984<br>Zona 2" }, "geometry": { "type": "Point", "coordinates": [ -77.0298451, -12.0588646 ] } },
{ "type": "Feature", "properties": { "x": -77.0398211, "y": -12.0499951, "gid": 37, "name": "Cam. 37 - Jr. Washington \/ Jr. Zepita", "description": "-12.04999, -77.03982<br>Zona 2" }, "geometry": { "type": "Point", "coordinates": [ -77.0398211, -12.0499951 ] } },
{ "type": "Feature", "properties": { "x": -77.0371245, "y": -12.0500224, "gid": 38, "name": "Cam. 38 - Av. Nicolás de Piérola \/ Jr. Cailloma", "description": "-12.05002, -77.03712<br>Zona 2" }, "geometry": { "type": "Point", "coordinates": [ -77.0371245, -12.0500224 ] } },
{ "type": "Feature", "properties": { "x": -77.0331494, "y": -12.0572795, "gid": 39, "name": "Cam. 39 - Jr. Cotabambas \/ Jr. Miguel Aljovin", "description": "-12.05727, -77.03314<br>Zona 2" }, "geometry": { "type": "Point", "coordinates": [ -77.0331494, -12.0572795 ] } },
{ "type": "Feature", "properties": { "x": -77.0336422, "y": -12.0555106, "gid": 40, "name": "Cam. 40 - Jr. Azángaro \/ Av. Franklin Roosevelt", "description": "-12.05551, -77.03364<br>Zona 2" }, "geometry": { "type": "Point", "coordinates": [ -77.0336422, -12.0555106 ] } },
{ "type": "Feature", "properties": { "x": -77.037853, "y": -12.0598368, "gid": 41, "name": "Cam. 41 - Av. Inca Garcilaso de la Vega \/ Av. 9 de Diciembre", "description": "-12.05983, -77.03785<br>Zona 3" }, "geometry": { "type": "Point", "coordinates": [ -77.037853, -12.0598368 ] } },
{ "type": "Feature", "properties": { "x": -77.0260436, "y": -12.0466251, "gid": 42, "name": "Cam. 42 - Av. Abancay \/ Jr. Ancash", "description": "-12.04662, -77.02604<br>Zona 1" }, "geometry": { "type": "Point", "coordinates": [ -77.0260436, -12.0466251 ] } },
{ "type": "Feature", "properties": { "x": -77.019486, "y": -12.0453016, "gid": 43, "name": "Cam. 43 - Jr. Huánuco \/ Jr. Amazonas", "description": "-12.0453, -77.01948<br>Zona 6" }, "geometry": { "type": "Point", "coordinates": [ -77.019486, -12.0453016 ] } },
{ "type": "Feature", "properties": { "x": -77.0235511, "y": -12.0551314, "gid": 44, "name": "Cam. 44 - Jr. Puno \/ Jr. Huanta", "description": "-12.05513, -77.02355<br>Zona 1" }, "geometry": { "type": "Point", "coordinates": [ -77.0235511, -12.0551314 ] } },
{ "type": "Feature", "properties": { "x": -77.0206201, "y": -12.0556028, "gid": 45, "name": "Cam. 45 - Jr. Puno \/ Jr. La Mar", "description": "-12.0556, -77.02062<br>Zona 1" }, "geometry": { "type": "Point", "coordinates": [ -77.0206201, -12.0556028 ] } },
{ "type": "Feature", "properties": { "x": -77.0194617, "y": -12.0577117, "gid": 46, "name": "Cam. 46 - Av. Miguel Grau \/ Jr. Lucanas", "description": "-12.05771, -77.01946<br>Zona 1" }, "geometry": { "type": "Point", "coordinates": [ -77.0194617, -12.0577117 ] } },
{ "type": "Feature", "properties": { "x": -77.0423458, "y": -12.0508487, "gid": 47, "name": "Cam. 47 - Av. Alfonso Ugarte \/ Jr. Quilca", "description": "-12.05084, -77.04234<br>Zona 2" }, "geometry": { "type": "Point", "coordinates": [ -77.0423458, -12.0508487 ] } },
{ "type": "Feature", "properties": { "x": -77.0409624, "y": -12.0475278, "gid": 48, "name": "Cam. 48 - Av. Nicolás de Piérola \/ Jr. Cañete", "description": "-12.04752, -77.04096<br>Zona 2" }, "geometry": { "type": "Point", "coordinates": [ -77.0409624, -12.0475278 ] } },
{ "type": "Feature", "properties": { "x": -77.0398082, "y": -12.0516031, "gid": 49, "name": "Cam. 49 - Jr. Washington \/ Jr. Dávalos Lisson", "description": "-12.0516, -77.0398<br>Zona 2" }, "geometry": { "type": "Point", "coordinates": [ -77.0398082, -12.0516031 ] } },
{ "type": "Feature", "properties": { "x": -77.0342141, "y": -12.0532055, "gid": 50, "name": "Cam. 50 - Jr. Contumaza \/ Jr. Lino Cornejo", "description": "-12.0532, -77.03421<br>Zona 2" }, "geometry": { "type": "Point", "coordinates": [ -77.0342141, -12.0532055 ] } },
{ "type": "Feature", "properties": { "x": -77.0315916, "y": -12.0580011, "gid": 51, "name": "Cam. 51 - Jr. Carlos Zavala \/ Jr. Montevideo", "description": "-12.058, -77.03159<br>Zona 2" }, "geometry": { "type": "Point", "coordinates": [ -77.0315916, -12.0580011 ] } },
{ "type": "Feature", "properties": { "x": -77.038712, "y": -12.0443441, "gid": 52, "name": "Cam. 52 - Jr. Huancavelica \/ Jr. Cañete", "description": "-12.04434, -77.03871<br>Zona 2" }, "geometry": { "type": "Point", "coordinates": [ -77.038712, -12.0443441 ] } },
{ "type": "Feature", "properties": { "x": -77.0350254, "y": -12.0452102, "gid": 53, "name": "Cam. 53 - Jr. Rufino Torrico \/ Jr. Ica", "description": "-12.04521, -77.03502<br>Zona 2" }, "geometry": { "type": "Point", "coordinates": [ -77.0350254, -12.0452102 ] } },
{ "type": "Feature", "properties": { "x": -77.0381291, "y": -12.0473442, "gid": 54, "name": "Cam. 54 - Av. Tacna \/ Jr. Moquegua", "description": "-12.04734, -77.03812<br>Zona 2" }, "geometry": { "type": "Point", "coordinates": [ -77.0381291, -12.0473442 ] } },
{ "type": "Feature", "properties": { "x": -77.0330092, "y": -12.0527101, "gid": 55, "name": "Cam. 55 - Jr. Lampa \/ Av. Nicolás de Piérola", "description": "-12.05271, -77.033<br>Zona 2" }, "geometry": { "type": "Point", "coordinates": [ -77.0330092, -12.0527101 ] } },
{ "type": "Feature", "properties": { "x": -77.0385806, "y": -12.0527649, "gid": 56, "name": "Cam. 56 - Av. Garcilaso de la Vega \/ Psje. Nueva Rosita", "description": "-12.05276, -77.03858<br>Zona 2" }, "geometry": { "type": "Point", "coordinates": [ -77.0385806, -12.0527649 ] } },
{ "type": "Feature", "properties": { "x": -77.0376084, "y": -12.0529133, "gid": 57, "name": "Cam. 57 - Jr. Rufino Torrico \/ Jr. Camana", "description": "-12.05291, -77.0376<br>Zona 2" }, "geometry": { "type": "Point", "coordinates": [ -77.0376084, -12.0529133 ] } },
{ "type": "Feature", "properties": { "x": -77.0406134, "y": -12.0543636, "gid": 58, "name": "Cam. 58 - Av. Uruguay \/ Jr. Chota", "description": "-12.05436, -77.04061<br>Zona 2" }, "geometry": { "type": "Point", "coordinates": [ -77.0406134, -12.0543636 ] } },
{ "type": "Feature", "properties": { "x": -77.0418768, "y": -12.0562233, "gid": 59, "name": "Cam. 59 - Av. Alfonso Ugarte \/ Av. Bolivia", "description": "-12.05622, -77.04187<br>Zona 2" }, "geometry": { "type": "Point", "coordinates": [ -77.0418768, -12.0562233 ] } },
{ "type": "Feature", "properties": { "x": -77.0380747, "y": -12.0578602, "gid": 60, "name": "Cam. 60 - Av. Garcilazo de la Vega \/ Av. España", "description": "-12.05786, -77.03807<br>Zona 2" }, "geometry": { "type": "Point", "coordinates": [ -77.0380747, -12.0578602 ] } },
{ "type": "Feature", "properties": { "x": -77.0412747, "y": -12.0490236, "gid": 61, "name": "Cam. 61 - Jr. Zepita \/ Psje. Peñaloza", "description": "-12.04902, -77.04127<br>Zona 2" }, "geometry": { "type": "Point", "coordinates": [ -77.0412747, -12.0490236 ] } },
{ "type": "Feature", "properties": { "x": -77.0421583, "y": -12.0484451, "gid": 62, "name": "Cam. 62 - Jr. Zepita \/ Psje. Larrabure", "description": "-12.04844, -77.04215<br>Zona 2" }, "geometry": { "type": "Point", "coordinates": [ -77.0421583, -12.0484451 ] } },
{ "type": "Feature", "properties": { "x": -77.0362842, "y": -12.0642035, "gid": 63, "name": "Cam. 63 - Av. 28 de julio \/ Av. Petit Thouars", "description": "-12.0642, -77.03628<br>Zona 3" }, "geometry": { "type": "Point", "coordinates": [ -77.0362842, -12.0642035 ] } },
{ "type": "Feature", "properties": { "x": -77.0322893, "y": -12.0688843, "gid": 64, "name": "Cam. 64 - Jr. Madre de Dios (Pque. De la Reserva - Estadio Nacional)", "description": "-12.06888, -77.03228<br>Zona 3" }, "geometry": { "type": "Point", "coordinates": [ -77.0322893, -12.0688843 ] } },
{ "type": "Feature", "properties": { "x": -77.0316347, "y": -12.0728088, "gid": 65, "name": "Cam. 65 - Jr. Emilio Fernández \/ Jr. Torres Paz", "description": "-12.0728, -77.03163<br>Zona 3" }, "geometry": { "type": "Point", "coordinates": [ -77.0316347, -12.0728088 ] } },
{ "type": "Feature", "properties": { "x": -77.0352494, "y": -12.0786135, "gid": 66, "name": "Cam. 66 - Av. Arequipa \/ Jr. Manuel del Pino", "description": "-12.07861, -77.03524<br>Zona 3" }, "geometry": { "type": "Point", "coordinates": [ -77.0352494, -12.0786135 ] } },
{ "type": "Feature", "properties": { "x": -77.0344221, "y": -12.0692236, "gid": 67, "name": "Cam. 67 - Jr. José Díaz \/ Jr. Madre de Dios", "description": "-12.06922, -77.03442<br>Zona 3" }, "geometry": { "type": "Point", "coordinates": [ -77.0344221, -12.0692236 ] } },
{ "type": "Feature", "properties": { "x": -77.0401151, "y": -12.0600241, "gid": 68, "name": "Cam. 68 - Av. 9 de Diciembre (Colon) \/ Jr. Chota", "description": "-12.06002, -77.04011<br>Zona 3" }, "geometry": { "type": "Point", "coordinates": [ -77.0401151, -12.0600241 ] } },
{ "type": "Feature", "properties": { "x": -77.0418853, "y": -12.0607166, "gid": 69, "name": "Cam. 69 - Pza. Bolognesi \/ Av. Brasil", "description": "-12.06071, -77.04188<br>Zona 3" }, "geometry": { "type": "Point", "coordinates": [ -77.0418853, -12.0607166 ] } },
{ "type": "Feature", "properties": { "x": -77.0378331, "y": -12.0619585, "gid": 70, "name": "Cam. 70 - Av. Garcilaso de la Vega \/ Jr. Huancayo", "description": "-12.06195, -77.03783<br>Zona 3" }, "geometry": { "type": "Point", "coordinates": [ -77.0378331, -12.0619585 ] } },
{ "type": "Feature", "properties": { "x": -77.0393086, "y": -12.0644049, "gid": 71, "name": "Cam. 71 - Av. 28 de julio \/ Jr. Guzmán Blanco", "description": "-12.0644, -77.0393<br>Zona 3" }, "geometry": { "type": "Point", "coordinates": [ -77.0393086, -12.0644049 ] } },
{ "type": "Feature", "properties": { "x": -77.0419351, "y": -12.0647117, "gid": 72, "name": "Cam. 72 - Av. 28 de julio \/ Jr. Gálvez Chipoco", "description": "-12.06471, -77.04193<br>Zona 3" }, "geometry": { "type": "Point", "coordinates": [ -77.0419351, -12.0647117 ] } },
{ "type": "Feature", "properties": { "x": -77.0455, "y": -12.065321, "gid": 73, "name": "Cam. 73 - Av. Brasil \/ Av. 28 de Julio", "description": "-12.06532, -77.0455<br>Zona 3" }, "geometry": { "type": "Point", "coordinates": [ -77.0455, -12.065321 ] } },
{ "type": "Feature", "properties": { "x": -77.0377768, "y": -12.0698083, "gid": 74, "name": "Cam. 74 - Av. Arenales \/ Jr. Larrabure y Unanue", "description": "-12.0698, -77.03777<br>Zona 3" }, "geometry": { "type": "Point", "coordinates": [ -77.0377768, -12.0698083 ] } },
{ "type": "Feature", "properties": { "x": -77.0373593, "y": -12.0725679, "gid": 75, "name": "Cam. 75 - Jr. Pablo Bermúdez \/ Av. Arenales", "description": "-12.07256, -77.03735<br>Zona 3" }, "geometry": { "type": "Point", "coordinates": [ -77.0373593, -12.0725679 ] } },
{ "type": "Feature", "properties": { "x": -77.0360808, "y": -12.0734443, "gid": 76, "name": "Cam. 76 - Av. Arequipa \/ Jr. Emilio Fernández", "description": "-12.07344, -77.03608<br>Zona 3" }, "geometry": { "type": "Point", "coordinates": [ -77.0360808, -12.0734443 ] } },
{ "type": "Feature", "properties": { "x": -77.0325027, "y": -12.0740145, "gid": 77, "name": "Cam. 77 - Av. Nicolás Aranibar \/ Jr. Alejandro Tirado", "description": "-12.07401, -77.0325<br>Zona 3" }, "geometry": { "type": "Point", "coordinates": [ -77.0325027, -12.0740145 ] } },
{ "type": "Feature", "properties": { "x": -77.0346134, "y": -12.075423, "gid": 78, "name": "Cam. 78 - Av. Petit Thouars \/ Jr. Mariano Carranza", "description": "-12.07542, -77.03461<br>Zona 3" }, "geometry": { "type": "Point", "coordinates": [ -77.0346134, -12.075423 ] } },
{ "type": "Feature", "properties": { "x": -77.0367384, "y": -12.0768377, "gid": 79, "name": "Cam. 79 - Av. Arenales \/ Jr. Enrique Villar", "description": "-12.07683, -77.03673<br>Zona 3" }, "geometry": { "type": "Point", "coordinates": [ -77.0367384, -12.0768377 ] } },
{ "type": "Feature", "properties": { "x": -77.0335366, "y": -12.077462, "gid": 80, "name": "Cam. 80 - Jr. Teodoro Cárdenas \/ Jr. Montero Rosas", "description": "-12.07746, -77.03353<br>Zona 3" }, "geometry": { "type": "Point", "coordinates": [ -77.0335366, -12.077462 ] } },
{ "type": "Feature", "properties": { "x": -77.0321459, "y": -12.0761511, "gid": 81, "name": "Cam. 81 - Jr. Enrique Villar \/ Jr. Carlos Arrieta", "description": "-12.07615, -77.03214<br>Zona 3" }, "geometry": { "type": "Point", "coordinates": [ -77.0321459, -12.0761511 ] } },
{ "type": "Feature", "properties": { "x": -77.0300172, "y": -12.077954, "gid": 82, "name": "Cam. 82 - Jr. José Gálvez \/ Jr. Manuel Castañeda", "description": "-12.07795, -77.03001<br>Zona 3" }, "geometry": { "type": "Point", "coordinates": [ -77.0300172, -12.077954 ] } },
{ "type": "Feature", "properties": { "x": -77.0412954, "y": -12.0440215, "gid": 83, "name": "Cam. 83 - Jr. Tayacaja \/ Av. Emancipación", "description": "-12.04402, -77.04129<br>Zona 2" }, "geometry": { "type": "Point", "coordinates": [ -77.0412954, -12.0440215 ] } },
{ "type": "Feature", "properties": { "x": -77.0433504, "y": -12.0430793, "gid": 84, "name": "Cam. 84 - . Argentina \/ Av. Alfonso Ugarte", "description": "-12.04307, -77.04335<br>Zona 4" }, "geometry": { "type": "Point", "coordinates": [ -77.0433504, -12.0430793 ] } },
{ "type": "Feature", "properties": { "x": -77.0432512, "y": -12.0462166, "gid": 85, "name": "Cam. 85 - Plaza. 2 de mayo \/ Av. Alfonso Ugarte", "description": "-12.04596, -77.04279<br>Zona 4" }, "geometry": { "type": "Point", "coordinates": [ -77.0432512, -12.0462166 ] } },
{ "type": "Feature", "properties": { "x": -77.0440017, "y": -12.0476632, "gid": 86, "name": "Cam. 86 - Jr. Cornelio Borda \/ Jr. Miguel Baquero", "description": "-12.04766, -77.044<br>Zona 4" }, "geometry": { "type": "Point", "coordinates": [ -77.0440017, -12.0476632 ] } },
{ "type": "Feature", "properties": { "x": -77.0454818, "y": -12.0466362, "gid": 87, "name": "Cam. 87 - Av. Colonial \/ Jr. Ascope", "description": "-12.04663, -77.04548<br>Zona 4" }, "geometry": { "type": "Point", "coordinates": [ -77.0454818, -12.0466362 ] } },
{ "type": "Feature", "properties": { "x": -77.0651698, "y": -12.0453257, "gid": 88, "name": "Cam. 88 - Av. Argentina \/ Av. Nicolás Dueñas", "description": "-12.04532, -77.06516<br>Zona 4" }, "geometry": { "type": "Point", "coordinates": [ -77.0651698, -12.0453257 ] } },
{ "type": "Feature", "properties": { "x": -77.0610216, "y": -12.0471224, "gid": 89, "name": "Cam. 89 - Av. Guillermo Dansey \/ Jr. Monsefu", "description": "-12.04712, -77.06102<br>Zona 4" }, "geometry": { "type": "Point", "coordinates": [ -77.0610216, -12.0471224 ] } },
{ "type": "Feature", "properties": { "x": -77.0506511, "y": -12.0471662, "gid": 90, "name": "Cam. 90 - Av. Colonial \/ Jr. Cárcamo", "description": "-12.04716, -77.05065<br>Zona 4" }, "geometry": { "type": "Point", "coordinates": [ -77.0506511, -12.0471662 ] } },
{ "type": "Feature", "properties": { "x": -77.0490908, "y": -12.0499189, "gid": 91, "name": "Cam. 91 - Jr. Zorritos \/ Jr. Molino del Gato", "description": "-12.04991, -77.04909<br>Zona 4" }, "geometry": { "type": "Point", "coordinates": [ -77.0490908, -12.0499189 ] } },
{ "type": "Feature", "properties": { "x": -77.0766319, "y": -12.0465111, "gid": 92, "name": "Cam. 92 - Av. Argentina \/ Av. Universitaria", "description": "-12.04651, -77.07663<br>Zona 4" }, "geometry": { "type": "Point", "coordinates": [ -77.0766319, -12.0465111 ] } },
{ "type": "Feature", "properties": { "x": -77.0499302, "y": -12.0374758, "gid": 93, "name": "Cam. 93 - Av. Morales Duarez \/ Puente Santa María", "description": "-12.03747, -77.04993<br>Zona 4" }, "geometry": { "type": "Point", "coordinates": [ -77.0499302, -12.0374758 ] } },
{ "type": "Feature", "properties": { "x": -77.0511632, "y": -12.0373787, "gid": 94, "name": "Cam. 94 - Av. Morales Duarez \/ Jr. Ramón Cárcamo", "description": "-12.03737, -77.05116<br>Zona 4" }, "geometry": { "type": "Point", "coordinates": [ -77.0511632, -12.0373787 ] } },
{ "type": "Feature", "properties": { "x": -77.0566075, "y": -12.0396254, "gid": 95, "name": "Cam. 95 - Av. Enrique Meiggs \/ Jr. Republica de Ecuador", "description": "-12.03962, -77.0566<br>Zona 4" }, "geometry": { "type": "Point", "coordinates": [ -77.0566075, -12.0396254 ] } },
{ "type": "Feature", "properties": { "x": -77.0522601, "y": -12.0442746, "gid": 96, "name": "Cam. 96 - Av. Argentina \/ Jr. Rodolfo Beltrán", "description": "-12.04427, -77.05226<br>Zona 4" }, "geometry": { "type": "Point", "coordinates": [ -77.0522601, -12.0442746 ] } },
{ "type": "Feature", "properties": { "x": -77.0471168, "y": -12.0434915, "gid": 97, "name": "Cam. 97 - Av. Argentina \/ Jr. Pacasmayo", "description": "-12.04349, -77.04711<br>Zona 4" }, "geometry": { "type": "Point", "coordinates": [ -77.0471168, -12.0434915 ] } },
{ "type": "Feature", "properties": { "x": -77.0512904, "y": -12.0404907, "gid": 98, "name": "Cam. 98 - Av. Enrique Meiggs \/ Jr. Ramón Cárcamo", "description": "-12.04049, -77.05129<br>Zona 4" }, "geometry": { "type": "Point", "coordinates": [ -77.0512904, -12.0404907 ] } },
{ "type": "Feature", "properties": { "x": -77.0659479, "y": -12.0382696, "gid": 99, "name": "Cam. 99 - Av. Nicolás Dueñas \/ Av. Enrique Meiggs", "description": "-12.03826, -77.06594<br>Zona 4" }, "geometry": { "type": "Point", "coordinates": [ -77.0659479, -12.0382696 ] } },
{ "type": "Feature", "properties": { "x": -77.0704078, "y": -12.0378399, "gid": 100, "name": "Cam. 100 - Av. Enrique Meiggs \/ Jr. Víctor Reynaldi", "description": "-12.03783, -77.0704<br>Zona 4" }, "geometry": { "type": "Point", "coordinates": [ -77.0704078, -12.0378399 ] } },
{ "type": "Feature", "properties": { "x": -77.0656556, "y": -12.0411272, "gid": 101, "name": "Cam. 101 - Jr. Pedro Garezón", "description": "-12.04112, -77.06565<br>Zona 4<br>Cámara Siniestrada" }, "geometry": { "type": "Point", "coordinates": [ -77.0656556, -12.0411272 ] } },
{ "type": "Feature", "properties": { "x": -77.0700557, "y": -12.0411562, "gid": 102, "name": "Cam. 102 - Av. Materiales \/ Jr. Víctor Reynel", "description": "-12.04115, -77.07005<br>Zona 4<br>Cámara Siniestrada" }, "geometry": { "type": "Point", "coordinates": [ -77.0700557, -12.0411562 ] } },
{ "type": "Feature", "properties": { "x": -77.0677764, "y": -12.0431776, "gid": 103, "name": "Cam. 103 - Av. Maquinarias \/ Av. Las Fabricas", "description": "-12.04317, -77.06777<br>Zona 4" }, "geometry": { "type": "Point", "coordinates": [ -77.0677764, -12.0431776 ] } },
{ "type": "Feature", "properties": { "x": -77.0508414, "y": -12.0457705, "gid": 104, "name": "Cam. 104 - Av. Guillermo Dansey \/ Jr. Ramón Cárcamo", "description": "-12.04577, -77.05084<br>Zona 4" }, "geometry": { "type": "Point", "coordinates": [ -77.0508414, -12.0457705 ] } },
{ "type": "Feature", "properties": { "x": -77.0768431, "y": -12.0445162, "gid": 105, "name": "Cam. 105 - Av. Maquinarias \/ Av. Universitaria", "description": "-12.04451, -77.07684<br>Zona 4" }, "geometry": { "type": "Point", "coordinates": [ -77.0768431, -12.0445162 ] } },
{ "type": "Feature", "properties": { "x": -77.0743962, "y": -12.0463056, "gid": 106, "name": "Cam. 106 - Av. Argentina \/ Av. Industrial", "description": "-12.0463, -77.07439<br>Zona 4" }, "geometry": { "type": "Point", "coordinates": [ -77.0743962, -12.0463056 ] } },
{ "type": "Feature", "properties": { "x": -77.077105, "y": -12.0417903, "gid": 107, "name": "Cam. 107 - Av. Materiales \/ Av. Universitaria", "description": "-12.04179, -77.0771<br>Zona 4" }, "geometry": { "type": "Point", "coordinates": [ -77.077105, -12.0417903 ] } },
{ "type": "Feature", "properties": { "x": -77.0776545, "y": -12.036493, "gid": 108, "name": "Cam. 108 - Av. Universitaria \/ Jr. Joaquín Capelo", "description": "-12.03649, -77.07765<br>Zona 4" }, "geometry": { "type": "Point", "coordinates": [ -77.0776545, -12.036493 ] } },
{ "type": "Feature", "properties": { "x": -77.0587085, "y": -12.0448793, "gid": 109, "name": "Cam. 109 - Av. Argentina \/ Jr. Fernando Wiesse", "description": "-12.04487, -77.0587<br>Zona 4" }, "geometry": { "type": "Point", "coordinates": [ -77.0587085, -12.0448793 ] } },
{ "type": "Feature", "properties": { "x": -77.0615431, "y": -12.0388957, "gid": 110, "name": "Cam. 110 - Av. Enrique Meiggs \/ Jr. Santa Rosa", "description": "-12.03889, -77.06154<br>Zona 4" }, "geometry": { "type": "Point", "coordinates": [ -77.0615431, -12.0388957 ] } },
{ "type": "Feature", "properties": { "x": -77.0553267, "y": -12.0369728, "gid": 111, "name": "Cam. 111 - Av. Morales Duarez \/ Psje. La Esperanza", "description": "-12.03697, -77.05532<br>Zona 4" }, "geometry": { "type": "Point", "coordinates": [ -77.0553267, -12.0369728 ] } },
{ "type": "Feature", "properties": { "x": -77.0811366, "y": -12.0523196, "gid": 112, "name": "Cam. 112 - Unidad Vecinal N°3 (Interior de U.V.3)", "description": "-12.05132, -77.08154<br>Zona 5" }, "geometry": { "type": "Point", "coordinates": [ -77.0811366, -12.0523196 ] } },
{ "type": "Feature", "properties": { "x": -77.0740871, "y": -12.0496057, "gid": 113, "name": "Cam. 113 - Av. García y García \/ Av. Colonial", "description": "-12.0496, -77.07408<br>Zona 5" }, "geometry": { "type": "Point", "coordinates": [ -77.0740871, -12.0496057 ] } },
{ "type": "Feature", "properties": { "x": -77.0713563, "y": -12.0493602, "gid": 114, "name": "Cam. 114 - Av. Colonial \/ Av. Arzubiaga", "description": "-12.04936, -77.07135<br>Zona 5" }, "geometry": { "type": "Point", "coordinates": [ -77.0713563, -12.0493602 ] } },
{ "type": "Feature", "properties": { "x": -77.0672762, "y": -12.0488812, "gid": 115, "name": "Cam. 115 - Av. Colonial \/ Av. Luis Braille", "description": "-12.04888, -77.06727<br>Zona 5" }, "geometry": { "type": "Point", "coordinates": [ -77.0672762, -12.0488812 ] } },
{ "type": "Feature", "properties": { "x": -77.0621331, "y": -12.0490424, "gid": 116, "name": "Cam. 116 - Jr. Alemania \/ Jr. Telleria \/ Jr. Austria", "description": "-12.04904, -77.06213<br>Zona 5" }, "geometry": { "type": "Point", "coordinates": [ -77.0621331, -12.0490424 ] } },
{ "type": "Feature", "properties": { "x": -77.053755, "y": -12.0490862, "gid": 117, "name": "Cam. 117 - Jr. Zorritos \/ Av. Tingo María", "description": "-12.04908, -77.05375<br>Zona 5" }, "geometry": { "type": "Point", "coordinates": [ -77.053755, -12.0490862 ] } },
{ "type": "Feature", "properties": { "x": -77.077907, "y": -12.05766, "gid": 118, "name": "Cam. 118 - Jr. Manuel Moncloa \/ Jr. Arístides del Carpio", "description": "-12.05766, -77.0779<br>Zona 5" }, "geometry": { "type": "Point", "coordinates": [ -77.077907, -12.05766 ] } },
{ "type": "Feature", "properties": { "x": -77.0756071, "y": -12.0593083, "gid": 119, "name": "Cam. 119 - Av. Aurelio García y García \/ Av. Venezuela", "description": "-12.0593, -77.0756<br>Zona 5" }, "geometry": { "type": "Point", "coordinates": [ -77.0756071, -12.0593083 ] } },
{ "type": "Feature", "properties": { "x": -77.0762245, "y": -12.0482597, "gid": 120, "name": "Cam. 120 - Jr. Ernestina Zamorano \/ Jr. Carlos Revolledo", "description": "-12.04825, -77.07622<br>Zona 5" }, "geometry": { "type": "Point", "coordinates": [ -77.0762245, -12.0482597 ] } },
{ "type": "Feature", "properties": { "x": -77.0684685, "y": -12.0577096, "gid": 121, "name": "Cam. 121 - Av. Venezuela \/ Av. Thorndike", "description": "-12.0577, -77.06847<br>Zona 5" }, "geometry": { "type": "Point", "coordinates": [ -77.0684685, -12.0577096 ] } },
{ "type": "Feature", "properties": { "x": -77.0616055, "y": -12.0541106, "gid": 122, "name": "Cam. 122 - Av. Naciones Unidad \/ Av. Arica", "description": "-12.05411, -77.0616<br>Zona 5" }, "geometry": { "type": "Point", "coordinates": [ -77.0616055, -12.0541106 ] } },
{ "type": "Feature", "properties": { "x": -77.0593777, "y": -12.0481421, "gid": 123, "name": "Cam. 123 - Av. Colonial \/ Av. Naciones Unidas", "description": "-12.04814, -77.05937<br>Zona 5" }, "geometry": { "type": "Point", "coordinates": [ -77.0593777, -12.0481421 ] } },
{ "type": "Feature", "properties": { "x": -77.0810539, "y": -12.0558135, "gid": 124, "name": "Cam. 124 - Av. Germán Amezaga \/ Av. Ramón Herrera (Universitaria)", "description": "-12.05581, -77.08105<br>Zona 5" }, "geometry": { "type": "Point", "coordinates": [ -77.0810539, -12.0558135 ] } },
{ "type": "Feature", "properties": { "x": -77.0780649, "y": -12.0497643, "gid": 125, "name": "Cam. 125 - Av. Universitaria \/ Av. Colonial", "description": "-12.04976, -77.07806<br>Zona 5" }, "geometry": { "type": "Point", "coordinates": [ -77.0780649, -12.0497643 ] } },
{ "type": "Feature", "properties": { "x": -77.0668389, "y": -12.0522403, "gid": 126, "name": "Cam. 126 - Av. Arica \/ Av. Luis Braille", "description": "-12.05224, -77.06683<br>Zona 5" }, "geometry": { "type": "Point", "coordinates": [ -77.0668389, -12.0522403 ] } },
{ "type": "Feature", "properties": { "x": -77.0639128, "y": -12.053339, "gid": 127, "name": "Cam. 127 - Av. Arica \/ Jr. Manuel Telleria", "description": "-12.05333, -77.06391<br>Zona 5" }, "geometry": { "type": "Point", "coordinates": [ -77.0639128, -12.053339 ] } },
{ "type": "Feature", "properties": { "x": -77.075248, "y": -12.0552826, "gid": 128, "name": "Cam. 128 - Av. Aurelio Garcia y Garcia \/ Jr. Mariano Arredondo", "description": "-12.05528, -77.07524<br>Zona 5" }, "geometry": { "type": "Point", "coordinates": [ -77.075248, -12.0552826 ] } },
{ "type": "Feature", "properties": { "x": -77.0707608, "y": -12.0547557, "gid": 129, "name": "Cam. 129 - Av. Reynaldo Saavedra Pinon \/ Av. Victor Sarria Arsubiaga", "description": "-12.05475, -77.07076<br>Zona 5" }, "geometry": { "type": "Point", "coordinates": [ -77.0707608, -12.0547557 ] } },
{ "type": "Feature", "properties": { "x": -77.0576416, "y": -12.0556385, "gid": 130, "name": "Cam. 130 - Av. Venezuela \/ Av. Tingo Maria", "description": "-12.05563, -77.05764<br>Zona 5" }, "geometry": { "type": "Point", "coordinates": [ -77.0576416, -12.0556385 ] } },
{ "type": "Feature", "properties": { "x": -77.0639088, "y": -12.0571389, "gid": 131, "name": "Cam. 131 - Av. Belisario Sosa Pelaez \/ Av. Venezuela", "description": "-12.05713, -77.0639<br>Zona 5" }, "geometry": { "type": "Point", "coordinates": [ -77.0639088, -12.0571389 ] } },
{ "type": "Feature", "properties": { "x": -77.0583684, "y": -12.0581461, "gid": 132, "name": "Cam. 132 - Av. Antenor Orrego \/ Av. Tingo Maria", "description": "-12.05814, -77.05836<br>Zona 5" }, "geometry": { "type": "Point", "coordinates": [ -77.0583684, -12.0581461 ] } },
{ "type": "Feature", "properties": { "x": -77.0634259, "y": -12.0587769, "gid": 133, "name": "Cam. 133 - Av. Belisario Sosa Pelaez \/ Av. Antenor Orrego", "description": "-12.05877, -77.06342<br>Zona 5" }, "geometry": { "type": "Point", "coordinates": [ -77.0634259, -12.0587769 ] } },
{ "type": "Feature", "properties": { "x": -77.0737702, "y": -12.067278, "gid": 134, "name": "Cam. 134 - Av. Santa Gertrudis \/ Ca. Santa Sabina", "description": "-12.06727, -77.07377<br>Zona 5" }, "geometry": { "type": "Point", "coordinates": [ -77.0737702, -12.067278 ] } },
{ "type": "Feature", "properties": { "x": -77.0677231, "y": -12.0676242, "gid": 135, "name": "Cam. 135 - Av. Mariano Cornejo \/ Av. Alborada", "description": "-12.06762, -77.06772<br>Zona 5" }, "geometry": { "type": "Point", "coordinates": [ -77.0677231, -12.0676242 ] } },
{ "type": "Feature", "properties": { "x": -77.059891, "y": -12.0635219, "gid": 136, "name": "Cam. 136 - Av. Alejandro Bertello \/ Av. Tingo Maria", "description": "-12.06352, -77.05989<br>Zona 5" }, "geometry": { "type": "Point", "coordinates": [ -77.059891, -12.0635219 ] } },
{ "type": "Feature", "properties": { "x": -77.0650639, "y": -12.0648177, "gid": 137, "name": "Cam. 137 - Jr. Lopez Albujar \/ Jr. Emilio Garcia Rosel", "description": "-12.06481, -77.06506<br>Zona 5" }, "geometry": { "type": "Point", "coordinates": [ -77.0650639, -12.0648177 ] } },
{ "type": "Feature", "properties": { "x": -77.0664651, "y": -12.0623259, "gid": 138, "name": "Cam. 138 - Av. Alejandro Bertello \/ Av. La Alborada", "description": "-12.06232, -77.06646<br>Zona 5" }, "geometry": { "type": "Point", "coordinates": [ -77.0664651, -12.0623259 ] } },
{ "type": "Feature", "properties": { "x": -77.073628, "y": -12.0631915, "gid": 139, "name": "Cam. 139 - Jr. Santa Gertrudis \/ Jr. Santa Teodosia", "description": "-12.06319, -77.07362<br>Zona 5" }, "geometry": { "type": "Point", "coordinates": [ -77.073628, -12.0631915 ] } },
{ "type": "Feature", "properties": { "x": -77.0787725, "y": -12.0613962, "gid": 140, "name": "Cam. 140 - Av. Universitaria \/ Jr. Santa Francisca", "description": "-12.06139, -77.07877<br>Zona 5" }, "geometry": { "type": "Point", "coordinates": [ -77.0787725, -12.0613962 ] } },
{ "type": "Feature", "properties": { "x": -77.0776406, "y": -12.0630854, "gid": 141, "name": "Cam. 141 - Jr. Santa Niserata \/ Jr. Santa Mariana", "description": "-12.06308, -77.07764<br>Zona 5" }, "geometry": { "type": "Point", "coordinates": [ -77.0776406, -12.0630854 ] } },
{ "type": "Feature", "properties": { "x": -77.068836, "y": -12.0642322, "gid": 142, "name": "Cam. 142 - Jr. Alejo Besada \/ Jr. Emilio Garcia Rosel", "description": "-12.06423, -77.06883<br>Zona 5" }, "geometry": { "type": "Point", "coordinates": [ -77.068836, -12.0642322 ] } },
{ "type": "Feature", "properties": { "x": -77.0155912, "y": -12.0477699, "gid": 143, "name": "Cam. 143 - Jr. Centro Escolar \/ Jr. Manuel Prado", "description": "-12.04776, -77.01559<br>Zona 6" }, "geometry": { "type": "Point", "coordinates": [ -77.0155912, -12.0477699 ] } },
{ "type": "Feature", "properties": { "x": -77.0140548, "y": -12.0522792, "gid": 144, "name": "Cam. 144 - Jr. Junin \/ Jr. Huari", "description": "-12.05227, -77.01405<br>Zona 6" }, "geometry": { "type": "Point", "coordinates": [ -77.0140548, -12.0522792 ] } },
{ "type": "Feature", "properties": { "x": -77.0188294, "y": -12.0531743, "gid": 145, "name": "Cam. 145 - Jr. Huanuco \/ jr. Miroquezada", "description": "-12.05317, -77.01882<br>Zona 1" }, "geometry": { "type": "Point", "coordinates": [ -77.0188294, -12.0531743 ] } },
{ "type": "Feature", "properties": { "x": -77.0164145, "y": -12.0575084, "gid": 146, "name": "Cam. 146 - Av. Miguel Grau \/ Jr. Antonio Bazo", "description": "-12.0575, -77.01641<br>Zona  6" }, "geometry": { "type": "Point", "coordinates": [ -77.0164145, -12.0575084 ] } },
{ "type": "Feature", "properties": { "x": -77.0155235, "y": -12.0613013, "gid": 147, "name": "Cam. 147 - Jr. Huanuco \/ Av. 28 de julio", "description": "-12.0613, -77.01552<br>Zona 6" }, "geometry": { "type": "Point", "coordinates": [ -77.0155235, -12.0613013 ] } },
{ "type": "Feature", "properties": { "x": -77.0072301, "y": -12.060336, "gid": 148, "name": "Cam. 148 - Av. Nicolas Ayllon 4 \/ Av. 28 de Julio", "description": "-12.06033, -77.00723<br>Zona 6" }, "geometry": { "type": "Point", "coordinates": [ -77.0072301, -12.060336 ] } },
{ "type": "Feature", "properties": { "x": -77.0101224, "y": -12.0345543, "gid": 149, "name": "Cam. 149 - Calle 3 \/ Evitamiento (AAHH. Nueva Caja de Agua)", "description": "-12.03455, -77.01012<br>Zona 6" }, "geometry": { "type": "Point", "coordinates": [ -77.0101224, -12.0345543 ] } },
{ "type": "Feature", "properties": { "x": -77.0125471, "y": -12.0444232, "gid": 150, "name": "Cam. 150 - Av. Sebastian Lorente \/ Jr. Ancash", "description": "-12.04442, -77.01254<br>Zona 6" }, "geometry": { "type": "Point", "coordinates": [ -77.0125471, -12.0444232 ] } },
{ "type": "Feature", "properties": { "x": -77.0194026, "y": -12.0510521, "gid": 151, "name": "Cam. 151 - Jr. Huanuco \/ Jr. Junin", "description": "-12.05105, -77.0194<br>Zona 1" }, "geometry": { "type": "Point", "coordinates": [ -77.0194026, -12.0510521 ] } },
{ "type": "Feature", "properties": { "x": -77.0134977, "y": -12.0548453, "gid": 152, "name": "Cam. 152 - Av. Miguel Grau \/ Av. Nicolas Ayllon", "description": "-12.05484, -77.01349<br>Zona 6" }, "geometry": { "type": "Point", "coordinates": [ -77.0134977, -12.0548453 ] } },
{ "type": "Feature", "properties": { "x": -77.0148335, "y": -12.0569438, "gid": 153, "name": "Cam. 153 - Av. Aviación \/ Av. Miguel Grau", "description": "-12.05694, -77.01483<br>Zona  6" }, "geometry": { "type": "Point", "coordinates": [ -77.0148335, -12.0569438 ] } },
{ "type": "Feature", "properties": { "x": -77.0127922, "y": -12.0609099, "gid": 154, "name": "Cam. 154 - Av. Aviacion \/ Av. 28 de Julio", "description": "-12.0609, -77.01279<br>Zona 6" }, "geometry": { "type": "Point", "coordinates": [ -77.0127922, -12.0609099 ] } },
{ "type": "Feature", "properties": { "x": -77.0106464, "y": -12.0572953, "gid": 155, "name": "Cam. 155 - Jr. García naranjo \/ Av. Nicolas Ayllon", "description": "-12.05729, -77.01064<br>Zona 6" }, "geometry": { "type": "Point", "coordinates": [ -77.0106464, -12.0572953 ] } },
{ "type": "Feature", "properties": { "x": -77.0134681, "y": -12.0432611, "gid": 156, "name": "Cam. 156 - Av. Sebastian Lorente \/ Jr. Amazonas", "description": "-12.04326, -77.01346<br>Zona 6" }, "geometry": { "type": "Point", "coordinates": [ -77.0134681, -12.0432611 ] } },
{ "type": "Feature", "properties": { "x": -77.0058074, "y": -12.0378175, "gid": 157, "name": "Cam. 157 - Calle Ferrocarril \/ Jr. Placido Jimenez", "description": "-12.03781, -77.0058<br>Zona 6" }, "geometry": { "type": "Point", "coordinates": [ -77.0058074, -12.0378175 ] } },
{ "type": "Feature", "properties": { "x": -77.0108962, "y": -12.0436415, "gid": 158, "name": "Cam. 158 - Av. Jose Rivera y Davalos \/ Jr. Ancash", "description": "-12.04364, -77.01089<br>Zona  6" }, "geometry": { "type": "Point", "coordinates": [ -77.0108962, -12.0436415 ] } },
{ "type": "Feature", "properties": { "x": -77.0047854, "y": -12.0416789, "gid": 159, "name": "Cam. 159 - Jr. Ancash \/ Jr. Placido Jimenez", "description": "-12.04167, -77.00478<br>Zona 6" }, "geometry": { "type": "Point", "coordinates": [ -77.0047854, -12.0416789 ] } },
{ "type": "Feature", "properties": { "x": -77.0178686, "y": -12.0451021, "gid": 160, "name": "Cam. 160 - Jr. Amazonas \/ Jr. Maynas", "description": "-12.0451, -77.01786<br>Zona 6" }, "geometry": { "type": "Point", "coordinates": [ -77.0178686, -12.0451021 ] } },
{ "type": "Feature", "properties": { "x": -77.0218713, "y": -12.045848, "gid": 161, "name": "Cam. 161 - 0099 OSCAR MIROQUESADA DELA GUERRA", "description": "-12.04584, -77.02187<br>Zona 1" }, "geometry": { "type": "Point", "coordinates": [ -77.0218713, -12.045848 ] } },
{ "type": "Feature", "properties": { "x": -77.016551, "y": -12.0465308, "gid": 162, "name": "Cam. 162 - 1037 RAMON ESPINOZA", "description": "-12.04653, -77.01655<br>Zona 6" }, "geometry": { "type": "Point", "coordinates": [ -77.016551, -12.0465308 ] } },
{ "type": "Feature", "properties": { "x": -77.014302, "y": -12.044285, "gid": 163, "name": "Cam. 163 - 1048 VIRGEN PURISIMA", "description": "-12.04428, -77.0143<br>Zona 6" }, "geometry": { "type": "Point", "coordinates": [ -77.014302, -12.044285 ] } },
{ "type": "Feature", "properties": { "x": -77.0156163, "y": -12.046735, "gid": 164, "name": "Cam. 164 - 22 REPUBLICA DE GUATEMALA", "description": "-12.04673, -77.01561<br>Zona 6" }, "geometry": { "type": "Point", "coordinates": [ -77.0156163, -12.046735 ] } },
{ "type": "Feature", "properties": { "x": -77.0138138, "y": -12.0467298, "gid": 165, "name": "Cam. 165 - 0001 MARÍA AUXILIADORA", "description": "-12.04672, -77.01381<br>Zona 6" }, "geometry": { "type": "Point", "coordinates": [ -77.0138138, -12.0467298 ] } },
{ "type": "Feature", "properties": { "x": -77.0120275, "y": -12.0494725, "gid": 166, "name": "Cam. 166 - 1036 REPÚBLICA DE COSTA RICA", "description": "-12.04947, -77.01202<br>Zona 6" }, "geometry": { "type": "Point", "coordinates": [ -77.0120275, -12.0494725 ] } },
{ "type": "Feature", "properties": { "x": -77.0160208, "y": -12.0552795, "gid": 167, "name": "Cam. 167 - CE VIRGO POTENS", "description": "-12.05527, -77.01602<br>Zona 6" }, "geometry": { "type": "Point", "coordinates": [ -77.0160208, -12.0552795 ] } },
{ "type": "Feature", "properties": { "x": -77.0172649, "y": -12.0512672, "gid": 168, "name": "Cam. 168 - 25 NUESTRA SEÑORA DE LA INMACULADA CONCEPCIÓN", "description": "-12.05126, -77.01726<br>Zona 6" }, "geometry": { "type": "Point", "coordinates": [ -77.0172649, -12.0512672 ] } },
{ "type": "Feature", "properties": { "x": -77.0163529, "y": -12.052883, "gid": 169, "name": "Cam. 169 - 1028 REPÚBLICA ARGENTINA", "description": "-12.05288, -77.01635<br>Zona 6" }, "geometry": { "type": "Point", "coordinates": [ -77.0163529, -12.052883 ] } },
{ "type": "Feature", "properties": { "x": -77.0111693, "y": -12.0581924, "gid": 170, "name": "Cam. 170 - 103 LUIS ARMANDO CABELLO HURTADO", "description": "-12.05817, -77.01109<br>Zona 6" }, "geometry": { "type": "Point", "coordinates": [ -77.0111693, -12.0581924 ] } },
{ "type": "Feature", "properties": { "x": -77.0246346, "y": -12.0459144, "gid": 171, "name": "Cam. 171 - 111 SAN JOSE DE ARTESANOS", "description": "-12.04591, -77.02463<br>Zona 1" }, "geometry": { "type": "Point", "coordinates": [ -77.0246346, -12.0459144 ] } },
{ "type": "Feature", "properties": { "x": -77.0237454, "y": -12.0472046, "gid": 172, "name": "Cam. 172 - 038 MARÍA PARADO DE BELLIDO", "description": "-12.04734, -77.02374<br>Zona 1" }, "geometry": { "type": "Point", "coordinates": [ -77.0237454, -12.0472046 ] } },
{ "type": "Feature", "properties": { "x": -77.0279493, "y": -12.0559793, "gid": 173, "name": "Cam. 173 - 1035 JOSE DEL CARMEN MARIN ARISTAS", "description": "-12.05597, -77.02794<br>Zona 1" }, "geometry": { "type": "Point", "coordinates": [ -77.0279493, -12.0559793 ] } },
{ "type": "Feature", "properties": { "x": -77.0347787, "y": -12.0426832, "gid": 174, "name": "Cam. 174 - NUESTRA SEÑORA DEMONSERRAT", "description": "-12.04268, -77.03477<br>Zona 2" }, "geometry": { "type": "Point", "coordinates": [ -77.0347787, -12.0426832 ] } },
{ "type": "Feature", "properties": { "x": -77.0383147, "y": -12.0418486, "gid": 175, "name": "Cam. 175 - 1145 REPÚBLICA DE VENEZUELA", "description": "-12.04184, -77.03831<br>Zona 2" }, "geometry": { "type": "Point", "coordinates": [ -77.0383147, -12.0418486 ] } },
{ "type": "Feature", "properties": { "x": -77.0402627, "y": -12.0447192, "gid": 176, "name": "Cam. 176 - 1146 REPÚBLICA DE PARAGUAY", "description": "-12.04471, -77.04026<br>Zona 2" }, "geometry": { "type": "Point", "coordinates": [ -77.0402627, -12.0447192 ] } },
{ "type": "Feature", "properties": { "x": -77.0390558, "y": -12.0586942, "gid": 177, "name": "Cam. 177 - 1001 JOE JIMENEZ BORJA", "description": "-12.05869, -77.03905<br>Zona 3" }, "geometry": { "type": "Point", "coordinates": [ -77.0390558, -12.0586942 ] } },
{ "type": "Feature", "properties": { "x": -77.0468119, "y": -12.0461099, "gid": 178, "name": "Cam. 178 - 0035 NUESTRA SEÑORA DE LA VISITACION EX 109", "description": "-12.0461, -77.04681<br>Zona 4" }, "geometry": { "type": "Point", "coordinates": [ -77.0468119, -12.0461099 ] } },
{ "type": "Feature", "properties": { "x": -77.0463095, "y": -12.0396147, "gid": 179, "name": "Cam. 179 - 0038 SAN MARTIN DE PORRES EX - 049", "description": "-12.03961, -77.0463<br>Zona 4" }, "geometry": { "type": "Point", "coordinates": [ -77.0463095, -12.0396147 ] } },
{ "type": "Feature", "properties": { "x": -77.0477954, "y": -12.0384107, "gid": 180, "name": "Cam. 180 - 1153 REPÚBLICA DE CANADA", "description": "-12.03838, -77.04772<br>Zona 4" }, "geometry": { "type": "Point", "coordinates": [ -77.0477954, -12.0384107 ] } },
{ "type": "Feature", "properties": { "x": -77.0499382, "y": -12.0367082, "gid": 181, "name": "Cam. 181 - 1152 - 108 DOS DE MAYO", "description": "-12.0367, -77.04993<br>Zona 4" }, "geometry": { "type": "Point", "coordinates": [ -77.0499382, -12.0367082 ] } },
{ "type": "Feature", "properties": { "x": -77.0537672, "y": -12.0381516, "gid": 182, "name": "Cam. 182 - 1156 JOSE SEBASTIAN BARRANCA LOVERA", "description": "-12.03815, -77.05376<br>Zona 4" }, "geometry": { "type": "Point", "coordinates": [ -77.0537672, -12.0381516 ] } },
{ "type": "Feature", "properties": { "x": -77.0563828, "y": -12.0425709, "gid": 183, "name": "Cam. 183 - 1160 JOSE FAUSTINO SANCHEZ CARRION", "description": "-12.04257, -77.05638<br>Zona 4" }, "geometry": { "type": "Point", "coordinates": [ -77.0563828, -12.0425709 ] } },
{ "type": "Feature", "properties": { "x": -77.0609905, "y": -12.0366179, "gid": 184, "name": "Cam. 184 - CENTRO EDUCATIVO 1161", "description": "-12.03661, -77.06099<br>Zona 5" }, "geometry": { "type": "Point", "coordinates": [ -77.0609905, -12.0366179 ] } },
{ "type": "Feature", "properties": { "x": -77.0652812, "y": -12.0440898, "gid": 185, "name": "Cam. 185 - 117 RVDO PADRE PASCUAL ALEGRE GONZALES", "description": "-12.04408, -77.06528<br>Zona 4" }, "geometry": { "type": "Point", "coordinates": [ -77.0652812, -12.0440898 ] } },
{ "type": "Feature", "properties": { "x": -77.0679866, "y": -12.0410916, "gid": 186, "name": "Cam. 186 - 0095 MARÍA AUXILIADORA", "description": "-12.04109, -77.06798<br>Zona 4" }, "geometry": { "type": "Point", "coordinates": [ -77.0679866, -12.0410916 ] } },
{ "type": "Feature", "properties": { "x": -77.0691969, "y": -12.0350798, "gid": 187, "name": "Cam. 187 - 1150 ABRAHAM ZEA CARREON", "description": "-12.03509, -77.06928<br>Zona 4" }, "geometry": { "type": "Point", "coordinates": [ -77.0691969, -12.0350798 ] } },
{ "type": "Feature", "properties": { "x": -77.04348, "y": -12.0406149, "gid": 188, "name": "Cam. 188 - CE PEDRO CORONADO ARRASCUE", "description": "-12.04034, -77.04351<br>Zona 2" }, "geometry": { "type": "Point", "coordinates": [ -77.04348, -12.0406149 ] } },
{ "type": "Feature", "properties": { "x": -77.0631489, "y": -12.0513392, "gid": 189, "name": "Cam. 189 - 1155 HOLANDA", "description": "-12.05137, -77.06318<br>Zona 5" }, "geometry": { "type": "Point", "coordinates": [ -77.0631489, -12.0513392 ] } },
{ "type": "Feature", "properties": { "x": -77.0709137, "y": -12.0529327, "gid": 190, "name": "Cam. 190 - 0040 HIPOLITO UNANUE", "description": "-12.05293, -77.07091<br>Zona 5" }, "geometry": { "type": "Point", "coordinates": [ -77.0709137, -12.0529327 ] } },
{ "type": "Feature", "properties": { "x": -77.0681831, "y": -12.0526367, "gid": 191, "name": "Cam. 191 - 0040 HIPOLITO UNANUE", "description": "-12.05263, -77.06818<br>Zona 5" }, "geometry": { "type": "Point", "coordinates": [ -77.0681831, -12.0526367 ] } },
{ "type": "Feature", "properties": { "x": -77.0730192, "y": -12.0540947, "gid": 192, "name": "Cam. 192 - CENTRO PILOTO DE RECUPERACIÓN PEDAGÓGICA", "description": "-12.05409, -77.07301<br>Zona 5" }, "geometry": { "type": "Point", "coordinates": [ -77.0730192, -12.0540947 ] } },
{ "type": "Feature", "properties": { "x": -77.0822067, "y": -12.0530698, "gid": 193, "name": "Cam. 193 - 1148 JUANA INFANTES VERA", "description": "-12.05306, -77.0822<br>Zona 5" }, "geometry": { "type": "Point", "coordinates": [ -77.0822067, -12.0530698 ] } },
{ "type": "Feature", "properties": { "x": -77.0718463, "y": -12.0593359, "gid": 194, "name": "Cam. 194 - 1016 JOHN F. KENNEDY", "description": "-12.05933, -77.07184<br>Zona 5" }, "geometry": { "type": "Point", "coordinates": [ -77.0718463, -12.0593359 ] } },
{ "type": "Feature", "properties": { "x": -77.0710256, "y": -12.0593621, "gid": 195, "name": "Cam. 195 - 1015 REPÚBLICA DE ITALIA", "description": "-12.05936, -77.07102<br>Zona 5" }, "geometry": { "type": "Point", "coordinates": [ -77.0710256, -12.0593621 ] } },
{ "type": "Feature", "properties": { "x": -77.0635376, "y": -12.0645869, "gid": 196, "name": "Cam. 196 - 1021 REPÚBLICA FEDERAL DE ALEMANIA", "description": "-12.06458, -77.06353<br>Zona 5" }, "geometry": { "type": "Point", "coordinates": [ -77.0635376, -12.0645869 ] } }
]
}
