{
    "type": "Topology",
    "objects": {
        "collection": {
            "type": "GeometryCollection",
            "geometries": [
                {
                    "type": "Point",
                    "coordinates": [
                        -71.53941345214844,
                        -16.403928756713867
                    ],
                    "id": "semaforos_aqp.fid--10b3fbf3_185acc0c9fa_47bd",
                    "properties": {
                        "nro": 1,
                        "departamento": "Arequipa",
                        "provincia": "Arequipa",
                        "distrito": "Arequipa",
                        "centro": "Arequipa",
                        "tipo_via": "A",
                        "entrada": 2,
                        "interseccion": "Calle 28 de julio – Calle La Merced",
                        "latitud": -16.403929,
                        "longitud": -71.53941
                    }
                },
                {
                    "type": "Point",
                    "coordinates": [
                        -71.53443145751953,
                        -16.400299072265625
                    ],
                    "id": "semaforos_aqp.fid--10b3fbf3_185acc0c9fa_47be",
                    "properties": {
                        "nro": 2,
                        "departamento": "Arequipa",
                        "provincia": "Arequipa",
                        "distrito": "Arequipa",
                        "centro": "Arequipa",
                        "tipo_via": "A",
                        "entrada": 2,
                        "interseccion": "Calle Piérola – Calle Santo Domingo",
                        "latitud": -16.4003,
                        "longitud": -71.53443
                    }
                },
                {
                    "type": "Point",
                    "coordinates": [
                        -71.53489685058594,
                        -16.40127944946289
                    ],
                    "id": "semaforos_aqp.fid--10b3fbf3_185acc0c9fa_47bf",
                    "properties": {
                        "nro": 3,
                        "departamento": "Arequipa",
                        "provincia": "Arequipa",
                        "distrito": "Arequipa",
                        "centro": "Arequipa",
                        "tipo_via": "A",
                        "entrada": 2,
                        "interseccion": "Calle Piérola – Calle Deán Valdivia",
                        "latitud": -16.40128,
                        "longitud": -71.5349
                    }
                },
                {
                    "type": "Point",
                    "coordinates": [
                        -71.53752136230469,
                        -16.405054092407227
                    ],
                    "id": "semaforos_aqp.fid--10b3fbf3_185acc0c9fa_47c0",
                    "properties": {
                        "nro": 4,
                        "departamento": "Arequipa",
                        "provincia": "Arequipa",
                        "distrito": "Arequipa",
                        "centro": "Arequipa",
                        "tipo_via": "A",
                        "entrada": 2,
                        "interseccion": "Calle 28 de julio – Calle San Juan de Dios",
                        "latitud": -16.405054,
                        "longitud": -71.53752
                    }
                },
                {
                    "type": "Point",
                    "coordinates": [
                        -71.53347778320312,
                        -16.394739151000977
                    ],
                    "id": "semaforos_aqp.fid--10b3fbf3_185acc0c9fa_47c1",
                    "properties": {
                        "nro": 5,
                        "departamento": "Arequipa",
                        "provincia": "Arequipa",
                        "distrito": "Arequipa",
                        "centro": "Arequipa",
                        "tipo_via": "A",
                        "entrada": 2,
                        "interseccion": "Calle Ayacucho – Calle Jerusalén",
                        "latitud": -16.39474,
                        "longitud": -71.53348
                    }
                },
                {
                    "type": "Point",
                    "coordinates": [
                        -71.53111267089844,
                        -16.395357131958008
                    ],
                    "id": "semaforos_aqp.fid--10b3fbf3_185acc0c9fa_47c2",
                    "properties": {
                        "nro": 6,
                        "departamento": "Arequipa",
                        "provincia": "Arequipa",
                        "distrito": "Arequipa",
                        "centro": "Arequipa",
                        "tipo_via": "C",
                        "entrada": 3,
                        "interseccion": "Calle Peral – Calle Ayacucho",
                        "latitud": -16.395357,
                        "longitud": -71.53111
                    }
                },
                {
                    "type": "Point",
                    "coordinates": [
                        -71.53257751464844,
                        -16.398622512817383
                    ],
                    "id": "semaforos_aqp.fid--10b3fbf3_185acc0c9fa_47c3",
                    "properties": {
                        "nro": 7,
                        "departamento": "Arequipa",
                        "provincia": "Arequipa",
                        "distrito": "Arequipa",
                        "centro": "Arequipa",
                        "tipo_via": "A",
                        "entrada": 2,
                        "interseccion": "Calle Peral – Calle San José",
                        "latitud": -16.398623,
                        "longitud": -71.53258
                    }
                },
                {
                    "type": "Point",
                    "coordinates": [
                        -71.53148651123047,
                        -16.399044036865234
                    ],
                    "id": "semaforos_aqp.fid--10b3fbf3_185acc0c9fa_47c4",
                    "properties": {
                        "nro": 8,
                        "departamento": "Arequipa",
                        "provincia": "Arequipa",
                        "distrito": "Arequipa",
                        "centro": "Arequipa",
                        "tipo_via": "A",
                        "entrada": 2,
                        "interseccion": "Calle Colón – Calle San José",
                        "latitud": -16.399044,
                        "longitud": -71.53149
                    }
                },
                {
                    "type": "Point",
                    "coordinates": [
                        -71.5306396484375,
                        -16.393512725830078
                    ],
                    "id": "semaforos_aqp.fid--10b3fbf3_185acc0c9fa_47c5",
                    "properties": {
                        "nro": 9,
                        "departamento": "Arequipa",
                        "provincia": "Arequipa",
                        "distrito": "Arequipa",
                        "centro": "Arequipa",
                        "tipo_via": "B",
                        "entrada": 3,
                        "interseccion": "Calle Peral – El Filtro",
                        "latitud": -16.393513,
                        "longitud": -71.53064
                    }
                },
                {
                    "type": "Point",
                    "coordinates": [
                        -71.52616119384766,
                        -16.39995765686035
                    ],
                    "id": "semaforos_aqp.fid--10b3fbf3_185acc0c9fa_47c6",
                    "properties": {
                        "nro": 10,
                        "departamento": "Arequipa",
                        "provincia": "Arequipa",
                        "distrito": "Arequipa",
                        "centro": "Arequipa",
                        "tipo_via": "C",
                        "entrada": 3,
                        "interseccion": "Av. Goyeneche – La Salle",
                        "latitud": -16.399958,
                        "longitud": -71.52616
                    }
                },
                {
                    "type": "Point",
                    "coordinates": [
                        -71.5275650024414,
                        -16.400991439819336
                    ],
                    "id": "semaforos_aqp.fid--10b3fbf3_185acc0c9fa_47c7",
                    "properties": {
                        "nro": 11,
                        "departamento": "Arequipa",
                        "provincia": "Arequipa",
                        "distrito": "Arequipa",
                        "centro": "Arequipa",
                        "tipo_via": "A",
                        "entrada": 2,
                        "interseccion": "Av. Goyeneche – Psje. Santa Rosa",
                        "latitud": -16.400991,
                        "longitud": -71.527565
                    }
                },
                {
                    "type": "Point",
                    "coordinates": [
                        -71.5356674194336,
                        -16.393875122070312
                    ],
                    "id": "semaforos_aqp.fid--10b3fbf3_185acc0c9fa_47c8",
                    "properties": {
                        "nro": 12,
                        "departamento": "Arequipa",
                        "provincia": "Arequipa",
                        "distrito": "Arequipa",
                        "centro": "Arequipa",
                        "tipo_via": "A",
                        "entrada": 2,
                        "interseccion": "Puente Grau – Santa Catalina",
                        "latitud": -16.393875,
                        "longitud": -71.53567
                    }
                },
                {
                    "type": "Point",
                    "coordinates": [
                        -71.52510833740234,
                        -16.397165298461914
                    ],
                    "id": "semaforos_aqp.fid--10b3fbf3_185acc0c9fa_47c9",
                    "properties": {
                        "nro": 13,
                        "departamento": "Arequipa",
                        "provincia": "Arequipa",
                        "distrito": "Arequipa",
                        "centro": "Arequipa",
                        "tipo_via": "A",
                        "entrada": 2,
                        "interseccion": "Av. Manuel Muñoz Najar – Av. La Paz",
                        "latitud": -16.397165,
                        "longitud": -71.52511
                    }
                },
                {
                    "type": "Point",
                    "coordinates": [
                        -71.51736450195312,
                        -16.402198791503906
                    ],
                    "id": "semaforos_aqp.fid--10b3fbf3_185acc0c9fa_47ca",
                    "properties": {
                        "nro": 14,
                        "departamento": "Arequipa",
                        "provincia": "Arequipa",
                        "distrito": "Arequipa",
                        "centro": "Arequipa",
                        "tipo_via": "E",
                        "entrada": 4,
                        "interseccion": "Av. Mariscal Castilla – Venezuela",
                        "latitud": -16.402199,
                        "longitud": -71.517365
                    }
                },
                {
                    "type": "Point",
                    "coordinates": [
                        -71.52894592285156,
                        -16.39984893798828
                    ],
                    "id": "semaforos_aqp.fid--10b3fbf3_185acc0c9fa_47cb",
                    "properties": {
                        "nro": 15,
                        "departamento": "Arequipa",
                        "provincia": "Arequipa",
                        "distrito": "Arequipa",
                        "centro": "Arequipa",
                        "tipo_via": "A",
                        "entrada": 2,
                        "interseccion": "Psje. Santa Rosa – Corbacho",
                        "latitud": -16.399849,
                        "longitud": -71.528946
                    }
                },
                {
                    "type": "Point",
                    "coordinates": [
                        -71.53072357177734,
                        -16.40121078491211
                    ],
                    "id": "semaforos_aqp.fid--10b3fbf3_185acc0c9fa_47cc",
                    "properties": {
                        "nro": 16,
                        "departamento": "Arequipa",
                        "provincia": "Arequipa",
                        "distrito": "Arequipa",
                        "centro": "Arequipa",
                        "tipo_via": "A",
                        "entrada": 2,
                        "interseccion": "Octavio Muñoz Najar – Corbacho",
                        "latitud": -16.40121,
                        "longitud": -71.53072
                    }
                },
                {
                    "type": "Point",
                    "coordinates": [
                        -71.5406723022461,
                        -16.39667510986328
                    ],
                    "id": "semaforos_aqp.fid--10b3fbf3_185acc0c9fa_47cd",
                    "properties": {
                        "nro": 17,
                        "departamento": "Arequipa",
                        "provincia": "Arequipa",
                        "distrito": "Arequipa",
                        "centro": "Arequipa",
                        "tipo_via": "E",
                        "entrada": 4,
                        "interseccion": "La Marina – San Agustín",
                        "latitud": -16.396675,
                        "longitud": -71.54067
                    }
                },
                {
                    "type": "Point",
                    "coordinates": [
                        -71.52670288085938,
                        -16.398273468017578
                    ],
                    "id": "semaforos_aqp.fid--10b3fbf3_185acc0c9fa_47ce",
                    "properties": {
                        "nro": 18,
                        "departamento": "Arequipa",
                        "provincia": "Arequipa",
                        "distrito": "Arequipa",
                        "centro": "Arequipa",
                        "tipo_via": "C",
                        "entrada": 3,
                        "interseccion": "Av. La Paz – Don Bosco",
                        "latitud": -16.398273,
                        "longitud": -71.5267
                    }
                },
                {
                    "type": "Point",
                    "coordinates": [
                        -71.52835083007812,
                        -16.39647102355957
                    ],
                    "id": "semaforos_aqp.fid--10b3fbf3_185acc0c9fa_47cf",
                    "properties": {
                        "nro": 19,
                        "departamento": "Arequipa",
                        "provincia": "Arequipa",
                        "distrito": "Arequipa",
                        "centro": "Arequipa",
                        "tipo_via": "D",
                        "entrada": 3,
                        "interseccion": "Don Bosco – San Pedro",
                        "latitud": -16.396471,
                        "longitud": -71.52835
                    }
                },
                {
                    "type": "Point",
                    "coordinates": [
                        -71.52393341064453,
                        -16.39812660217285
                    ],
                    "id": "semaforos_aqp.fid--10b3fbf3_185acc0c9fa_47d0",
                    "properties": {
                        "nro": 20,
                        "departamento": "Arequipa",
                        "provincia": "Arequipa",
                        "distrito": "Arequipa",
                        "centro": "Arequipa",
                        "tipo_via": "D",
                        "entrada": 3,
                        "interseccion": "Av. Manuel Muñoz Najar – Av. Goyeneche",
                        "latitud": -16.398127,
                        "longitud": -71.52393
                    }
                },
                {
                    "type": "Point",
                    "coordinates": [
                        -71.5323257446289,
                        -16.404861450195312
                    ],
                    "id": "semaforos_aqp.fid--10b3fbf3_185acc0c9fa_47d1",
                    "properties": {
                        "nro": 21,
                        "departamento": "Arequipa",
                        "provincia": "Arequipa",
                        "distrito": "Arequipa",
                        "centro": "Arequipa",
                        "tipo_via": "A",
                        "entrada": 2,
                        "interseccion": "Av. Jorge Chávez – Víctor Lira",
                        "latitud": -16.404861,
                        "longitud": -71.532326
                    }
                },
                {
                    "type": "Point",
                    "coordinates": [
                        -71.53866577148438,
                        -16.40749740600586
                    ],
                    "id": "semaforos_aqp.fid--10b3fbf3_185acc0c9fa_47d2",
                    "properties": {
                        "nro": 22,
                        "departamento": "Arequipa",
                        "provincia": "Arequipa",
                        "distrito": "Arequipa",
                        "centro": "Arequipa",
                        "tipo_via": "B",
                        "entrada": 3,
                        "interseccion": "Salaverry – San Juan de Dios",
                        "latitud": -16.407497,
                        "longitud": -71.538666
                    }
                },
                {
                    "type": "Point",
                    "coordinates": [
                        -71.54122161865234,
                        -16.408737182617188
                    ],
                    "id": "semaforos_aqp.fid--10b3fbf3_185acc0c9fa_47d3",
                    "properties": {
                        "nro": 23,
                        "departamento": "Arequipa",
                        "provincia": "Arequipa",
                        "distrito": "Arequipa",
                        "centro": "Arequipa",
                        "tipo_via": "D",
                        "entrada": 3,
                        "interseccion": "Tacna y Arica – Angamos",
                        "latitud": -16.408737,
                        "longitud": -71.54122
                    }
                },
                {
                    "type": "Point",
                    "coordinates": [
                        -71.53695678710938,
                        -16.392850875854492
                    ],
                    "id": "semaforos_aqp.fid--10b3fbf3_185acc0c9fa_47d4",
                    "properties": {
                        "nro": 24,
                        "departamento": "Arequipa",
                        "provincia": "Arequipa",
                        "distrito": "Arequipa",
                        "centro": "Arequipa",
                        "tipo_via": "A",
                        "entrada": 2,
                        "interseccion": "Villalba -Juan de la Torre",
                        "latitud": -16.39285,
                        "longitud": -71.53696
                    }
                },
                {
                    "type": "Point",
                    "coordinates": [
                        -71.53594207763672,
                        -16.40090560913086
                    ],
                    "id": "semaforos_aqp.fid--10b3fbf3_185acc0c9fa_47d5",
                    "properties": {
                        "nro": 25,
                        "departamento": "Arequipa",
                        "provincia": "Arequipa",
                        "distrito": "Arequipa",
                        "centro": "Arequipa",
                        "tipo_via": "A",
                        "entrada": 2,
                        "interseccion": "Calle San Juan de Dios – Palacio Viejo",
                        "latitud": -16.400906,
                        "longitud": -71.53594
                    }
                },
                {
                    "type": "Point",
                    "coordinates": [
                        -71.53555297851562,
                        -16.399911880493164
                    ],
                    "id": "semaforos_aqp.fid--10b3fbf3_185acc0c9fa_47d6",
                    "properties": {
                        "nro": 26,
                        "departamento": "Arequipa",
                        "provincia": "Arequipa",
                        "distrito": "Arequipa",
                        "centro": "Arequipa",
                        "tipo_via": "A",
                        "entrada": 2,
                        "interseccion": "Calle Santo Domingo – San Juan de Dios",
                        "latitud": -16.399912,
                        "longitud": -71.53555
                    }
                },
                {
                    "type": "Point",
                    "coordinates": [
                        -71.53661346435547,
                        -16.399620056152344
                    ],
                    "id": "semaforos_aqp.fid--10b3fbf3_185acc0c9fa_47d7",
                    "properties": {
                        "nro": 27,
                        "departamento": "Arequipa",
                        "provincia": "Arequipa",
                        "distrito": "Arequipa",
                        "centro": "Arequipa",
                        "tipo_via": "A",
                        "entrada": 2,
                        "interseccion": "Calle Álvarez Thomas – Calle Moran",
                        "latitud": -16.39962,
                        "longitud": -71.53661
                    }
                },
                {
                    "type": "Point",
                    "coordinates": [
                        -71.53760528564453,
                        -16.39910316467285
                    ],
                    "id": "semaforos_aqp.fid--10b3fbf3_185acc0c9fa_47d8",
                    "properties": {
                        "nro": 28,
                        "departamento": "Arequipa",
                        "provincia": "Arequipa",
                        "distrito": "Arequipa",
                        "centro": "Arequipa",
                        "tipo_via": "A",
                        "entrada": 2,
                        "interseccion": "Calle Merced – Puente Bolognesi",
                        "latitud": -16.399103,
                        "longitud": -71.537605
                    }
                },
                {
                    "type": "Point",
                    "coordinates": [
                        -71.53463745117188,
                        -16.397859573364258
                    ],
                    "id": "semaforos_aqp.fid--10b3fbf3_185acc0c9fa_47d9",
                    "properties": {
                        "nro": 29,
                        "departamento": "Arequipa",
                        "provincia": "Arequipa",
                        "distrito": "Arequipa",
                        "centro": "Arequipa",
                        "tipo_via": "A",
                        "entrada": 2,
                        "interseccion": "Calle Jerusalén – Calle San José",
                        "latitud": -16.39786,
                        "longitud": -71.53464
                    }
                },
                {
                    "type": "Point",
                    "coordinates": [
                        -71.5449447631836,
                        -16.396026611328125
                    ],
                    "id": "semaforos_aqp.fid--10b3fbf3_185acc0c9fa_47da",
                    "properties": {
                        "nro": 30,
                        "departamento": "Arequipa",
                        "provincia": "Arequipa",
                        "distrito": "Arequipa",
                        "centro": "Umacollo",
                        "tipo_via": "E",
                        "entrada": 4,
                        "interseccion": "Av. Emmel - Calle Zamácola",
                        "latitud": -16.396027,
                        "longitud": -71.544945
                    }
                },
                {
                    "type": "Point",
                    "coordinates": [
                        -71.54570770263672,
                        -16.397911071777344
                    ],
                    "id": "semaforos_aqp.fid--10b3fbf3_185acc0c9fa_47db",
                    "properties": {
                        "nro": 31,
                        "departamento": "Arequipa",
                        "provincia": "Arequipa",
                        "distrito": "Arequipa",
                        "centro": "Umacollo",
                        "tipo_via": "E",
                        "entrada": 4,
                        "interseccion": "Av. José Abelardo Quiñones - Calle Ricardo Palma",
                        "latitud": -16.397911,
                        "longitud": -71.54571
                    }
                },
                {
                    "type": "Point",
                    "coordinates": [
                        -71.55228424072266,
                        -16.40361785888672
                    ],
                    "id": "semaforos_aqp.fid--10b3fbf3_185acc0c9fa_47dc",
                    "properties": {
                        "nro": 32,
                        "departamento": "Arequipa",
                        "provincia": "Arequipa",
                        "distrito": "Arequipa",
                        "centro": "Umacollo",
                        "tipo_via": "E",
                        "entrada": 4,
                        "interseccion": "Av. Víctor Andrés Belaúnde - Av. Metropolitana",
                        "latitud": -16.403618,
                        "longitud": -71.552284
                    }
                },
                {
                    "type": "Point",
                    "coordinates": [
                        -71.53846740722656,
                        -16.401185989379883
                    ],
                    "id": "semaforos_aqp.fid--10b3fbf3_185acc0c9fa_47dd",
                    "properties": {
                        "nro": 33,
                        "departamento": "Arequipa",
                        "provincia": "Arequipa",
                        "distrito": "Arequipa",
                        "centro": "Umacollo",
                        "tipo_via": "D",
                        "entrada": 3,
                        "interseccion": "María Nieves y Bustamante - Ernesto Novoa Loreta",
                        "latitud": -16.401186,
                        "longitud": -71.53847
                    }
                },
                {
                    "type": "Point",
                    "coordinates": [
                        -71.54827880859375,
                        -16.39521598815918
                    ],
                    "id": "semaforos_aqp.fid--10b3fbf3_185acc0c9fa_47de",
                    "properties": {
                        "nro": 34,
                        "departamento": "Arequipa",
                        "provincia": "Arequipa",
                        "distrito": "Arequipa",
                        "centro": "Umacollo",
                        "tipo_via": "E",
                        "entrada": 4,
                        "interseccion": "Av. José Abelardo Quiñones - Chullo",
                        "latitud": -16.395216,
                        "longitud": -71.54828
                    }
                },
                {
                    "type": "Point",
                    "coordinates": [
                        -71.53402709960938,
                        -16.399187088012695
                    ],
                    "id": "semaforos_aqp.fid--10b3fbf3_185acc0c9fa_47df",
                    "properties": {
                        "nro": 35,
                        "departamento": "Arequipa",
                        "provincia": "Arequipa",
                        "distrito": "Arequipa",
                        "centro": "Arequipa",
                        "tipo_via": "A",
                        "entrada": 2,
                        "interseccion": "Calle Mercaderes - Calle Piérola",
                        "latitud": -16.399187,
                        "longitud": -71.53403
                    }
                },
                {
                    "type": "Point",
                    "coordinates": [
                        -71.53299713134766,
                        -16.39963150024414
                    ],
                    "id": "semaforos_aqp.fid--10b3fbf3_185acc0c9fa_47e0",
                    "properties": {
                        "nro": 36,
                        "departamento": "Arequipa",
                        "provincia": "Arequipa",
                        "distrito": "Arequipa",
                        "centro": "Arequipa",
                        "tipo_via": "A",
                        "entrada": 2,
                        "interseccion": "Calle Mercaderes - Calle Perú",
                        "latitud": -16.399632,
                        "longitud": -71.533
                    }
                },
                {
                    "type": "Point",
                    "coordinates": [
                        -71.53196716308594,
                        -16.39999771118164
                    ],
                    "id": "semaforos_aqp.fid--10b3fbf3_185acc0c9fa_47e1",
                    "properties": {
                        "nro": 37,
                        "departamento": "Arequipa",
                        "provincia": "Arequipa",
                        "distrito": "Arequipa",
                        "centro": "Arequipa",
                        "tipo_via": "A",
                        "entrada": 2,
                        "interseccion": "Calle Mercaderes - Calle Pizarro",
                        "latitud": -16.399998,
                        "longitud": -71.53197
                    }
                },
                {
                    "type": "Point",
                    "coordinates": [
                        -71.53504943847656,
                        -16.39885139465332
                    ],
                    "id": "semaforos_aqp.fid--10b3fbf3_185acc0c9fa_47e2",
                    "properties": {
                        "nro": 38,
                        "departamento": "Arequipa",
                        "provincia": "Arequipa",
                        "distrito": "Arequipa",
                        "centro": "Arequipa",
                        "tipo_via": "A",
                        "entrada": 2,
                        "interseccion": "Calle Mercaderes - Calle San Juan de Dios",
                        "latitud": -16.398851,
                        "longitud": -71.53505
                    }
                },
                {
                    "type": "Point",
                    "coordinates": [
                        -71.54754638671875,
                        -16.389636993408203
                    ],
                    "id": "semaforos_aqp.fid--10b3fbf3_185acc0c9fa_47e3",
                    "properties": {
                        "nro": 39,
                        "departamento": "Arequipa",
                        "provincia": "Arequipa",
                        "distrito": "Cayma",
                        "centro": "Urb. Los Sauces",
                        "tipo_via": "E",
                        "entrada": 4,
                        "interseccion": "Av. Cayma / Av. Ejército",
                        "latitud": -16.389637,
                        "longitud": -71.54755
                    }
                },
                {
                    "type": "Point",
                    "coordinates": [
                        -71.5577621459961,
                        -16.375551223754883
                    ],
                    "id": "semaforos_aqp.fid--10b3fbf3_185acc0c9fa_47e4",
                    "properties": {
                        "nro": 40,
                        "departamento": "Arequipa",
                        "provincia": "Arequipa",
                        "distrito": "Cayma",
                        "centro": "Urb. Los Sauces",
                        "tipo_via": "E",
                        "entrada": 4,
                        "interseccion": "Calle Miguel Grau / Av. Aviación",
                        "latitud": -16.375551,
                        "longitud": -71.55776
                    }
                }
            ]
        }
    },
    "arcs": [],
    "bbox": [
        -71.5577621459961,
        -16.408737182617188,
        -71.51736450195312,
        -16.375551223754883
    ]
}